{
    "basename": "asr-logical3-b6316c6",
    "cmd": "lfortran --show-asr --no-color {infile} -o {outfile}",
    "infile": "tests/../integration_tests/logical3.f90",
    "infile_hash": "d7f7994a85ee59f1b3b80060886eeeb7390f9733461bd9349e4bb7c0",
    "outfile": null,
    "outfile_hash": null,
    "stdout": "asr-logical3-b6316c6.stdout",
    "stdout_hash": "901fc6c8c9b143b2cb204aa1f2552f372dc6852a8e58a41128250d92",
    "stderr": "asr-logical3-b6316c6.stderr",
    "stderr_hash": "bfef4a46078cd921dcbfcade08fa1a2cf35ff66f6c17e1411ae172c5",
    "returncode": 0
}