{
    "basename": "asr-intrinsics_04-524ec3a",
    "cmd": "lfortran --show-asr --no-color {infile} -o {outfile}",
    "infile": "tests/../integration_tests/intrinsics_04.f90",
    "infile_hash": "e57796259cf2dba2b8541517d9e379884b1f3f5dda7454b8d960954f",
    "outfile": null,
    "outfile_hash": null,
    "stdout": "asr-intrinsics_04-524ec3a.stdout",
    "stdout_hash": "de9dc0d50b7a44542673441e849da577a300a68f455edb04a161c179",
    "stderr": null,
    "stderr_hash": null,
    "returncode": 0
}