{
    "basename": "asr-class_04-285a1df",
    "cmd": "lfortran --show-asr --no-color {infile} -o {outfile}",
    "infile": "tests/../integration_tests/class_04.f90",
    "infile_hash": "0ddf2718f32dd9cfea8c4f4c9c384902ac023b5792e9fc8ec4a7648f",
    "outfile": null,
    "outfile_hash": null,
    "stdout": "asr-class_04-285a1df.stdout",
    "stdout_hash": "2bd0ab027ac7e74d0ccc05b4ff4b3b1497c95c569f87b9ca13dc919b",
    "stderr": null,
    "stderr_hash": null,
    "returncode": 0
}