{
    "basename": "asr-string_01-bda4726",
    "cmd": "lfortran --show-asr --no-color {infile} -o {outfile}",
    "infile": "tests/../integration_tests/string_01.f90",
    "infile_hash": "e7d4974d8a9b9704bf0c02d7943d916b40c591de3c9e89d30de28d7d",
    "outfile": null,
    "outfile_hash": null,
    "stdout": "asr-string_01-bda4726.stdout",
    "stdout_hash": "42024c02852cd05fc5ed888748d8e3a16878a7d47d09792633ba5e96",
    "stderr": null,
    "stderr_hash": null,
    "returncode": 0
}