{
    "basename": "asr-intrinsics_30-93f854c",
    "cmd": "lfortran --show-asr --no-color {infile} -o {outfile}",
    "infile": "tests/../integration_tests/intrinsics_30.f90",
    "infile_hash": "073c12a9a7bb4b45c452a8e2ce47ad422883ac2fcfa3c7e97c5938ee",
    "outfile": null,
    "outfile_hash": null,
    "stdout": "asr-intrinsics_30-93f854c.stdout",
    "stdout_hash": "5406bdcd45ae615d7d6843da3947d699b9b473f13c0105f003d9a570",
    "stderr": null,
    "stderr_hash": null,
    "returncode": 0
}