{
    "basename": "asr-case_01-b59db9c",
    "cmd": "lfortran --show-asr --no-color {infile} -o {outfile}",
    "infile": "tests/../integration_tests/case_01.f90",
    "infile_hash": "50b2ffd2a03a6c41a881d9c5cd2e1a0941707b9200f12c16f1bd48ea",
    "outfile": null,
    "outfile_hash": null,
    "stdout": "asr-case_01-b59db9c.stdout",
    "stdout_hash": "b3478cdde5c22b0397d5943b75f3d2ebaa8523ced12f50ee9e65350a",
    "stderr": null,
    "stderr_hash": null,
    "returncode": 0
}