{
    "basename": "asr-nested_02-8302041",
    "cmd": "lfortran --show-asr --no-color {infile} -o {outfile}",
    "infile": "tests/../integration_tests/nested_02.f90",
    "infile_hash": "ca630d38e8d596a7d4b2db926185e9ec245f6831a9c826a87d669557",
    "outfile": null,
    "outfile_hash": null,
    "stdout": "asr-nested_02-8302041.stdout",
    "stdout_hash": "e9f6e03111f5d4a241b95acd4ec73e75023a289ad4da72d1400b1340",
    "stderr": null,
    "stderr_hash": null,
    "returncode": 0
}