{
    "basename": "asr-class_01-704dee8",
    "cmd": "lfortran --show-asr --no-color {infile} -o {outfile}",
    "infile": "tests/../integration_tests/class_01.f90",
    "infile_hash": "d56b80167c24a798a3f70abbc77b31570b560e826ce6b96ab9476bab",
    "outfile": null,
    "outfile_hash": null,
    "stdout": "asr-class_01-704dee8.stdout",
    "stdout_hash": "16744e58d8466e80ee7e9e910d34933295c3066b43dda82767295c51",
    "stderr": null,
    "stderr_hash": null,
    "returncode": 0
}