{
    "basename": "asr-flip_sign-a0cebd4",
    "cmd": "lfortran --show-asr --no-color {infile} -o {outfile}",
    "infile": "tests/../integration_tests/flip_sign.f90",
    "infile_hash": "12739178c354710c6f6bbeb834508a7932ae385c1340b0c08bca8b8d",
    "outfile": null,
    "outfile_hash": null,
    "stdout": "asr-flip_sign-a0cebd4.stdout",
    "stdout_hash": "040c1faaf76e4d7d103a1bbe3f98b3fbb164bf44cf955fac613a185f",
    "stderr": null,
    "stderr_hash": null,
    "returncode": 0
}