{
    "basename": "asr-block_03-6c8fdd8",
    "cmd": "lfortran --show-asr --no-color {infile} -o {outfile}",
    "infile": "tests/../integration_tests/block_03.f90",
    "infile_hash": "3271e019be3575ad1c8280a5b50d7fccb0534f39241680ad66e6bc50",
    "outfile": null,
    "outfile_hash": null,
    "stdout": "asr-block_03-6c8fdd8.stdout",
    "stdout_hash": "765a7009a6a385e0d62f447c50d0af3c2f4b951e7806cdecfa923bb9",
    "stderr": null,
    "stderr_hash": null,
    "returncode": 0
}