{
    "basename": "asr-callback_01-21b53de",
    "cmd": "lfortran --show-asr --no-color {infile} -o {outfile}",
    "infile": "tests/../integration_tests/callback_01.f90",
    "infile_hash": "d2c103564620acefc4245ff5eb5dfe84478276bead512800823259da",
    "outfile": null,
    "outfile_hash": null,
    "stdout": "asr-callback_01-21b53de.stdout",
    "stdout_hash": "350ff4d63c43222c84948acd9da0042d33a8a44ca083caf8d612f7d7",
    "stderr": null,
    "stderr_hash": null,
    "returncode": 0
}