{
    "basename": "asr-int_dp_param-19bf015",
    "cmd": "lfortran --show-asr --no-color {infile} -o {outfile}",
    "infile": "tests/../integration_tests/int_dp_param.f90",
    "infile_hash": "bb7549fda78172a3f68b883fd1423773bf823a71a4dd2f89476886b5",
    "outfile": null,
    "outfile_hash": null,
    "stdout": "asr-int_dp_param-19bf015.stdout",
    "stdout_hash": "03932ebb8dba05ed2c65951db01d316c3d589cf5489c13bcac405ab0",
    "stderr": null,
    "stderr_hash": null,
    "returncode": 0
}