{
    "basename": "asr-int_01-72c2ff1",
    "cmd": "lfortran --show-asr --no-color {infile} -o {outfile}",
    "infile": "tests/../integration_tests/int_01.f90",
    "infile_hash": "766d63f0b9cf518eb398acd6ceff8d8856637959cc0bf1890b03c89d",
    "outfile": null,
    "outfile_hash": null,
    "stdout": "asr-int_01-72c2ff1.stdout",
    "stdout_hash": "1dd6c2d33f6e2977581426ca20fdb00d231cb57231d6093ff7a3a731",
    "stderr": null,
    "stderr_hash": null,
    "returncode": 0
}