{
    "basename": "asr-modules_05-f939cc6",
    "cmd": "lfortran --show-asr --no-color {infile} -o {outfile}",
    "infile": "tests/modules_05.f90",
    "infile_hash": "e9f1e3a9e80949247e90dc618aff63fe80d5cc91017f860a752efaff",
    "outfile": null,
    "outfile_hash": null,
    "stdout": "asr-modules_05-f939cc6.stdout",
    "stdout_hash": "c66c45ef2165f3d7dd67c4d2405f60db5228fd2c471607e24a85621e",
    "stderr": null,
    "stderr_hash": null,
    "returncode": 0
}