{
    "basename": "asr-floor_02-5b70ee6",
    "cmd": "lfortran --show-asr --no-color {infile} -o {outfile}",
    "infile": "tests/../integration_tests/floor_02.f90",
    "infile_hash": "491234f50f51c45988216c1d0dc82e2493ae2de4b40cf8c85e31ed16",
    "outfile": null,
    "outfile_hash": null,
    "stdout": "asr-floor_02-5b70ee6.stdout",
    "stdout_hash": "9463b3b55766beab38fe74f9cec02d0c66b5fc539a6d857f96ea54c5",
    "stderr": null,
    "stderr_hash": null,
    "returncode": 0
}