{
    "basename": "asr-intrinsics_14-302666f",
    "cmd": "lfortran --show-asr --no-color {infile} -o {outfile}",
    "infile": "tests/../integration_tests/intrinsics_14.f90",
    "infile_hash": "0017e2b1ddd0667501a325653a7ff399ca299155a4493562918f53e9",
    "outfile": null,
    "outfile_hash": null,
    "stdout": "asr-intrinsics_14-302666f.stdout",
    "stdout_hash": "1b3cb09199897df9cd9fff134f8d522c8f1df4ce5a8743624b495c6e",
    "stderr": null,
    "stderr_hash": null,
    "returncode": 0
}