{
    "basename": "asr-array_02_transfer-1bcc806",
    "cmd": "lfortran --show-asr --no-color {infile} -o {outfile}",
    "infile": "tests/../integration_tests/array_02_transfer.f90",
    "infile_hash": "39a7e9746d898ab639aea38fe0e86585c820af2c036e57e4b1f1e556",
    "outfile": null,
    "outfile_hash": null,
    "stdout": "asr-array_02_transfer-1bcc806.stdout",
    "stdout_hash": "4e3f075b1dd1d3ed85e154f2784f3946fd4cf02898b0d7b5c9d59ec0",
    "stderr": null,
    "stderr_hash": null,
    "returncode": 0
}