{
    "basename": "asr-parameter_05-916c4d8",
    "cmd": "lfortran --show-asr --no-color {infile} -o {outfile}",
    "infile": "tests/../integration_tests/parameter_05.f90",
    "infile_hash": "050c43a9cdbd3f792c1b0b750daa46584ebee4ee16bebe0333f92e9b",
    "outfile": null,
    "outfile_hash": null,
    "stdout": "asr-parameter_05-916c4d8.stdout",
    "stdout_hash": "40ec0bd4ed6d068b850e5d9b2017894f4cb4e6535f741706885dd35f",
    "stderr": null,
    "stderr_hash": null,
    "returncode": 0
}