{
    "basename": "asr-cond_02-373a22a",
    "cmd": "lfortran --show-asr --no-color {infile} -o {outfile}",
    "infile": "tests/../integration_tests/cond_02.f90",
    "infile_hash": "fc70f7e7943dfe505736cca5b8ff39a034a4a1a7f441d9bdf0a82662",
    "outfile": null,
    "outfile_hash": null,
    "stdout": "asr-cond_02-373a22a.stdout",
    "stdout_hash": "ba05f1225a40db6bce4ab0a68136fd05f9bdd20649dc6601d6735358",
    "stderr": null,
    "stderr_hash": null,
    "returncode": 0
}