{
    "basename": "asr-expr_06-2de4136",
    "cmd": "lfortran --show-asr --no-color {infile} -o {outfile}",
    "infile": "tests/../integration_tests/expr_06.f90",
    "infile_hash": "86c5ce938c64e34b4a0d0c0005ed174ab091a74089c4e28d87f55945",
    "outfile": null,
    "outfile_hash": null,
    "stdout": "asr-expr_06-2de4136.stdout",
    "stdout_hash": "548e6b001d8215cfe756e3a809b614838892595253096a1cd6378696",
    "stderr": null,
    "stderr_hash": null,
    "returncode": 0
}