{
    "basename": "asr-matrix_02_matmul-d389302",
    "cmd": "lfortran --show-asr --no-color {infile} -o {outfile}",
    "infile": "tests/../integration_tests/matrix_02_matmul.f90",
    "infile_hash": "f9f29eb561649b8537a9026dd909d5127760d548d49dfa42f0b3ef32",
    "outfile": null,
    "outfile_hash": null,
    "stdout": "asr-matrix_02_matmul-d389302.stdout",
    "stdout_hash": "8644fa9369e6c2f9e591bdf7b7bf57a0116b53cf263ccbc6e0848034",
    "stderr": null,
    "stderr_hash": null,
    "returncode": 0
}