{
    "basename": "asr-case_06-f84222d",
    "cmd": "lfortran --show-asr --no-color {infile} -o {outfile}",
    "infile": "tests/../integration_tests/case_06.f90",
    "infile_hash": "3987983e4c8d162530bceffbbce0bd7d038b1f794655c222c47ad714",
    "outfile": null,
    "outfile_hash": null,
    "stdout": "asr-case_06-f84222d.stdout",
    "stdout_hash": "cec1d1eb51dc352953aa493a7d95ba26bf2f57e59a805c6fb6ed17a4",
    "stderr": null,
    "stderr_hash": null,
    "returncode": 0
}