{
    "basename": "asr-functions_09-1e51ac7",
    "cmd": "lfortran --show-asr --no-color {infile} -o {outfile}",
    "infile": "tests/../integration_tests/functions_09.f90",
    "infile_hash": "050352bd7c3ecc846699ec79fe6e09ed5b9515fba210bdbbf66355b0",
    "outfile": null,
    "outfile_hash": null,
    "stdout": "asr-functions_09-1e51ac7.stdout",
    "stdout_hash": "f768d050be5e1e8ca8246aabd4a6264f9c1934afe14abb3f700da774",
    "stderr": null,
    "stderr_hash": null,
    "returncode": 0
}