{
    "basename": "cpp-arrays_01-4fac8c3",
    "cmd": "lfortran --no-color --show-cpp {infile}",
    "infile": "tests/../integration_tests/arrays_01.f90",
    "infile_hash": "f7df4142feb383f836dfa072a60673922e8873b5695f893be8329b89",
    "outfile": null,
    "outfile_hash": null,
    "stdout": "cpp-arrays_01-4fac8c3.stdout",
    "stdout_hash": "eb8c39b8045f874b70ef63238c3212d7b71e1224b0dae4ccbd431e9e",
    "stderr": null,
    "stderr_hash": null,
    "returncode": 0
}