{
    "basename": "cpp-arrays_04_func-68b1437",
    "cmd": "lfortran --no-color --show-cpp {infile}",
    "infile": "tests/../integration_tests/arrays_04_func.f90",
    "infile_hash": "50eb699e803e7dace8da286ee49cdb7381ebe3141bff17ca374f1f02",
    "outfile": null,
    "outfile_hash": null,
    "stdout": "cpp-arrays_04_func-68b1437.stdout",
    "stdout_hash": "b668c4738c3d500014360956600309e6de12c6698342d3e05e3ab750",
    "stderr": null,
    "stderr_hash": null,
    "returncode": 0
}