{
    "basename": "cpp-do_concurrent_reduce-373b02e",
    "cmd": "lfortran --no-color --show-cpp {infile}",
    "infile": "tests/do_concurrent_reduce.f90",
    "infile_hash": "44ebdebb05b853f4680c203c3b2b0e98e9285d1f3923ecbc255bc105",
    "outfile": null,
    "outfile_hash": null,
    "stdout": "cpp-do_concurrent_reduce-373b02e.stdout",
    "stdout_hash": "20a4914721f522d8caf22ce46c67909e7887ca7e530a4e9b0ef25ac7",
    "stderr": null,
    "stderr_hash": null,
    "returncode": 0
}