#include <iostream>
#include <string>
#include <vector>
#include <cassert>
#include <cmath>
#include <complex>
#include <Kokkos_Core.hpp>
#include <lfortran_intrinsics.h>

template <typename T>
Kokkos::View<T*> from_std_vector(const std::vector<T> &v)
{
    Kokkos::View<T*> r("r", v.size());
    for (size_t i=0; i < v.size(); i++) {
        r(i) = v[i];
    }
    return r;
}

// Forward declarations
namespace {
void triad(const Kokkos::View<const float*> &a, const Kokkos::View<const float*> &b, float scalar, const Kokkos::View<float*> &c);
}

// Implementations
namespace {
void triad(const Kokkos::View<const float*> &a, const Kokkos::View<const float*> &b, float scalar, const Kokkos::View<float*> &c)
{
    int n;
    n = a.extent(0);
    Kokkos::parallel_for(Kokkos::RangePolicy<Kokkos::DefaultExecutionSpace>(1, n+1), KOKKOS_LAMBDA(const long i) {
        c[i-1] = a[i-1] + scalar*b[i-1];
    });
}


void main2() {
}

}
int main(int argc, char* argv[])
{
    Kokkos::initialize(argc, argv);
    main2();
    Kokkos::finalize();
    return 0;
}
