{
    "basename": "llvm-bits_02-925bde2",
    "cmd": "lfortran --no-color --show-llvm {infile} -o {outfile}",
    "infile": "tests/../integration_tests/bits_02.f90",
    "infile_hash": "326043189040d63a64dac0f62cb9504336196a58ad139ffe70eeb884",
    "outfile": null,
    "outfile_hash": null,
    "stdout": "llvm-bits_02-925bde2.stdout",
    "stdout_hash": "c3b36a50cd9672aa3de60fe1f764e7e44601cee2d67ddbe853eb19a1",
    "stderr": null,
    "stderr_hash": null,
    "returncode": 0
}