; ModuleID = 'LFortran'
source_filename = "LFortran"

@0 = private unnamed_addr constant [12 x i8] c"ERROR STOP\0A\00", align 1
@1 = private unnamed_addr constant [12 x i8] c"ERROR STOP\0A\00", align 1
@2 = private unnamed_addr constant [12 x i8] c"ERROR STOP\0A\00", align 1
@3 = private unnamed_addr constant [10 x i8] c"%d %d %d\0A\00", align 1

declare i32 @__module_lfortran_intrinsic_builtin_iachar(i8**, i32*)

declare void @__module_lfortran_intrinsic_builtin_move_alloc(i32*, i32*)

define i32 @main() {
.entry:
  %ia0 = alloca i32, align 4
  store i32 48, i32* %ia0, align 4
  %ia5 = alloca i32, align 4
  store i32 53, i32* %ia5, align 4
  %ia9 = alloca i32, align 4
  store i32 57, i32* %ia9, align 4
  br i1 false, label %then, label %else

then:                                             ; preds = %.entry
  call void (i8*, ...) @_lfortran_printf(i8* getelementptr inbounds ([12 x i8], [12 x i8]* @0, i32 0, i32 0))
  call void @exit(i32 1)
  br label %ifcont

else:                                             ; preds = %.entry
  br label %ifcont

ifcont:                                           ; preds = %else, %then
  br i1 false, label %then1, label %else2

then1:                                            ; preds = %ifcont
  call void (i8*, ...) @_lfortran_printf(i8* getelementptr inbounds ([12 x i8], [12 x i8]* @1, i32 0, i32 0))
  call void @exit(i32 1)
  br label %ifcont3

else2:                                            ; preds = %ifcont
  br label %ifcont3

ifcont3:                                          ; preds = %else2, %then1
  br i1 false, label %then4, label %else5

then4:                                            ; preds = %ifcont3
  call void (i8*, ...) @_lfortran_printf(i8* getelementptr inbounds ([12 x i8], [12 x i8]* @2, i32 0, i32 0))
  call void @exit(i32 1)
  br label %ifcont6

else5:                                            ; preds = %ifcont3
  br label %ifcont6

ifcont6:                                          ; preds = %else5, %then4
  call void (i8*, ...) @_lfortran_printf(i8* getelementptr inbounds ([10 x i8], [10 x i8]* @3, i32 0, i32 0), i32 48, i32 53, i32 57)
  ret i32 0
}

declare void @_lfortran_printf(i8*, ...)

declare void @exit(i32)
