{
    "basename": "llvm-arrays_op_1-636d572",
    "cmd": "lfortran --no-color --show-llvm {infile} -o {outfile}",
    "infile": "tests/../integration_tests/arrays_op_1.f90",
    "infile_hash": "be5b09f7d22cbcd7a3e696dd73d60576efa0c24ad30f580af6465613",
    "outfile": null,
    "outfile_hash": null,
    "stdout": "llvm-arrays_op_1-636d572.stdout",
    "stdout_hash": "66966f1cd4ec7b62d32b14c553c7fd66a3be24554d9424cf5c7eed09",
    "stderr": null,
    "stderr_hash": null,
    "returncode": 0
}