{
    "basename": "llvm-arrays_08_func-85e526b",
    "cmd": "lfortran --no-color --show-llvm {infile} -o {outfile}",
    "infile": "tests/../integration_tests/arrays_08_func.f90",
    "infile_hash": "31dc0eac87716ea184d20ac42f94636f0a25c0ee00022272c2b1327d",
    "outfile": null,
    "outfile_hash": null,
    "stdout": "llvm-arrays_08_func-85e526b.stdout",
    "stdout_hash": "4306ae905f9d8d6b7dafcd196b81473514d57c4ac484bd6dea4c9d45",
    "stderr": "llvm-arrays_08_func-85e526b.stderr",
    "stderr_hash": "d70481e5625f20fa12d3e8bdad4a5dfa6912ac62ade8fc840a5da64b",
    "returncode": 0
}