{
    "basename": "llvm-arrays_04_func-2aa342e",
    "cmd": "lfortran --no-color --show-llvm {infile} -o {outfile}",
    "infile": "tests/../integration_tests/arrays_04_func.f90",
    "infile_hash": "50eb699e803e7dace8da286ee49cdb7381ebe3141bff17ca374f1f02",
    "outfile": null,
    "outfile_hash": null,
    "stdout": "llvm-arrays_04_func-2aa342e.stdout",
    "stdout_hash": "7ab52472e7cade760e87957ea91f5b55ec5b03ccadd5faa175e23990",
    "stderr": null,
    "stderr_hash": null,
    "returncode": 0
}