{
    "basename": "llvm-arrays_op_7-aeeda6d",
    "cmd": "lfortran --no-color --show-llvm {infile} -o {outfile}",
    "infile": "tests/../integration_tests/arrays_op_7.f90",
    "infile_hash": "28ac5e279c932606f8621e87d76c7bd8acb9b2560fd784a6e1bdba4d",
    "outfile": null,
    "outfile_hash": null,
    "stdout": "llvm-arrays_op_7-aeeda6d.stdout",
    "stdout_hash": "440cfe250a83c3012f3d0391b218575e5c049b996702a109412a01b4",
    "stderr": null,
    "stderr_hash": null,
    "returncode": 0
}