{
    "basename": "pass_inline_function_calls-functions_08-515120b",
    "cmd": "lfortran --pass=inline_function_calls --show-asr --no-color {infile} -o {outfile}",
    "infile": "tests/../integration_tests/functions_08.f90",
    "infile_hash": "6f22c108fdac79d99083d736cc3c4a1f3091aa84dde7732f33c833f7",
    "outfile": null,
    "outfile_hash": null,
    "stdout": "pass_inline_function_calls-functions_08-515120b.stdout",
    "stdout_hash": "ae6a69167885225d13f92d211bb4258bc9fa061ff8bf09a5fdfc1666",
    "stderr": null,
    "stderr_hash": null,
    "returncode": 0
}